%YAML 1.1
%TAG !u! tag:unity3d.com,2011:
--- !u!1 &2039491964122916055
GameObject:
  m_ObjectHideFlags: 0
  m_CorrespondingSourceObject: {fileID: 0}
  m_PrefabInstance: {fileID: 0}
  m_PrefabAsset: {fileID: 0}
  serializedVersion: 6
  m_Component:
  - component: {fileID: 2464166975057888383}
  - component: {fileID: 3383927375575060689}
  - component: {fileID: 6884565454702879932}
  m_Layer: 0
  m_Name: Cylinder.009 (1)
  m_TagString: Untagged
  m_Icon: {fileID: 0}
  m_NavMeshLayer: 0
  m_StaticEditorFlags: 0
  m_IsActive: 1
--- !u!4 &2464166975057888383
Transform:
  m_ObjectHideFlags: 0
  m_CorrespondingSourceObject: {fileID: 0}
  m_PrefabInstance: {fileID: 0}
  m_PrefabAsset: {fileID: 0}
  m_GameObject: {fileID: 2039491964122916055}
  serializedVersion: 2
  m_LocalRotation: {x: -0.7071068, y: 0, z: -0, w: 0.7071067}
  m_LocalPosition: {x: -9.098517, y: 1, z: -7.632484}
  m_LocalScale: {x: 20.533293, y: 20.533293, z: 100}
  m_ConstrainProportionsScale: 0
  m_Children:
  - {fileID: 6422964059782309449}
  m_Father: {fileID: 0}
  m_LocalEulerAnglesHint: {x: 0, y: 0, z: 0}
--- !u!33 &3383927375575060689
MeshFilter:
  m_ObjectHideFlags: 0
  m_CorrespondingSourceObject: {fileID: 0}
  m_PrefabInstance: {fileID: 0}
  m_PrefabAsset: {fileID: 0}
  m_GameObject: {fileID: 2039491964122916055}
  m_Mesh: {fileID: 8691780276856062721, guid: 0f9108bd9c1412744b6842e104135c9a, type: 3}
--- !u!23 &6884565454702879932
MeshRenderer:
  m_ObjectHideFlags: 0
  m_CorrespondingSourceObject: {fileID: 0}
  m_PrefabInstance: {fileID: 0}
  m_PrefabAsset: {fileID: 0}
  m_GameObject: {fileID: 2039491964122916055}
  m_Enabled: 1
  m_CastShadows: 0
  m_ReceiveShadows: 1
  m_DynamicOccludee: 1
  m_StaticShadowCaster: 0
  m_MotionVectors: 1
  m_LightProbeUsage: 1
  m_ReflectionProbeUsage: 1
  m_RayTracingMode: 2
  m_RayTraceProcedural: 0
  m_RenderingLayerMask: 1
  m_RendererPriority: 0
  m_Materials:
  - {fileID: 2460882165326549360, guid: 0f9108bd9c1412744b6842e104135c9a, type: 3}
  - {fileID: 2100000, guid: 9bfa3252649de55448f71d4fd69ea8d3, type: 2}
  m_StaticBatchInfo:
    firstSubMesh: 0
    subMeshCount: 0
  m_StaticBatchRoot: {fileID: 0}
  m_ProbeAnchor: {fileID: 0}
  m_LightProbeVolumeOverride: {fileID: 0}
  m_ScaleInLightmap: 1
  m_ReceiveGI: 1
  m_PreserveUVs: 0
  m_IgnoreNormalsForChartDetection: 0
  m_ImportantGI: 0
  m_StitchLightmapSeams: 1
  m_SelectedEditorRenderState: 3
  m_MinimumChartSize: 4
  m_AutoUVMaxDistance: 0.5
  m_AutoUVMaxAngle: 89
  m_LightmapParameters: {fileID: 0}
  m_SortingLayerID: 0
  m_SortingLayer: 0
  m_SortingOrder: 0
  m_AdditionalVertexStreams: {fileID: 0}
--- !u!1001 &5320694516741625151
PrefabInstance:
  m_ObjectHideFlags: 0
  serializedVersion: 2
  m_Modification:
    serializedVersion: 3
    m_TransformParent: {fileID: 2464166975057888383}
    m_Modifications:
    - target: {fileID: 1221624150182605686, guid: 2f89c593b33cbb7488565dded6d99ccb, type: 3}
      propertyPath: m_LocalScale.x
      value: 0.048701394
      objectReference: {fileID: 0}
    - target: {fileID: 1221624150182605686, guid: 2f89c593b33cbb7488565dded6d99ccb, type: 3}
      propertyPath: m_LocalScale.y
      value: 0.010000002
      objectReference: {fileID: 0}
    - target: {fileID: 1221624150182605686, guid: 2f89c593b33cbb7488565dded6d99ccb, type: 3}
      propertyPath: m_LocalScale.z
      value: 0.048701406
      objectReference: {fileID: 0}
    - target: {fileID: 1221624150182605686, guid: 2f89c593b33cbb7488565dded6d99ccb, type: 3}
      propertyPath: m_LocalPosition.x
      value: 0.0005
      objectReference: {fileID: 0}
    - target: {fileID: 1221624150182605686, guid: 2f89c593b33cbb7488565dded6d99ccb, type: 3}
      propertyPath: m_LocalPosition.y
      value: 0.0007
      objectReference: {fileID: 0}
    - target: {fileID: 1221624150182605686, guid: 2f89c593b33cbb7488565dded6d99ccb, type: 3}
      propertyPath: m_LocalPosition.z
      value: 0.0333
      objectReference: {fileID: 0}
    - target: {fileID: 1221624150182605686, guid: 2f89c593b33cbb7488565dded6d99ccb, type: 3}
      propertyPath: m_LocalRotation.w
      value: 0.7071067
      objectReference: {fileID: 0}
    - target: {fileID: 1221624150182605686, guid: 2f89c593b33cbb7488565dded6d99ccb, type: 3}
      propertyPath: m_LocalRotation.x
      value: 0.7071068
      objectReference: {fileID: 0}
    - target: {fileID: 1221624150182605686, guid: 2f89c593b33cbb7488565dded6d99ccb, type: 3}
      propertyPath: m_LocalRotation.y
      value: -0
      objectReference: {fileID: 0}
    - target: {fileID: 1221624150182605686, guid: 2f89c593b33cbb7488565dded6d99ccb, type: 3}
      propertyPath: m_LocalRotation.z
      value: 0
      objectReference: {fileID: 0}
    - target: {fileID: 1221624150182605686, guid: 2f89c593b33cbb7488565dded6d99ccb, type: 3}
      propertyPath: m_LocalEulerAnglesHint.x
      value: 0
      objectReference: {fileID: 0}
    - target: {fileID: 1221624150182605686, guid: 2f89c593b33cbb7488565dded6d99ccb, type: 3}
      propertyPath: m_LocalEulerAnglesHint.y
      value: 0
      objectReference: {fileID: 0}
    - target: {fileID: 1221624150182605686, guid: 2f89c593b33cbb7488565dded6d99ccb, type: 3}
      propertyPath: m_LocalEulerAnglesHint.z
      value: 0
      objectReference: {fileID: 0}
    - target: {fileID: 2939711314807975902, guid: 2f89c593b33cbb7488565dded6d99ccb, type: 3}
      propertyPath: m_Name
      value: Point Light
      objectReference: {fileID: 0}
    m_RemovedComponents: []
    m_RemovedGameObjects: []
    m_AddedGameObjects: []
    m_AddedComponents: []
  m_SourcePrefab: {fileID: 100100000, guid: 2f89c593b33cbb7488565dded6d99ccb, type: 3}
--- !u!4 &6422964059782309449 stripped
Transform:
  m_CorrespondingSourceObject: {fileID: 1221624150182605686, guid: 2f89c593b33cbb7488565dded6d99ccb, type: 3}
  m_PrefabInstance: {fileID: 5320694516741625151}
  m_PrefabAsset: {fileID: 0}
