%YAML 1.1
%TAG !u! tag:unity3d.com,2011:
--- !u!74 &7400000
AnimationClip:
  m_ObjectHideFlags: 0
  m_CorrespondingSourceObject: {fileID: 0}
  m_PrefabInstance: {fileID: 0}
  m_PrefabAsset: {fileID: 0}
  m_Name: Run
  serializedVersion: 7
  m_Legacy: 0
  m_Compressed: 0
  m_UseHighQualityCurve: 1
  m_RotationCurves: []
  m_CompressedRotationCurves: []
  m_EulerCurves: []
  m_PositionCurves: []
  m_ScaleCurves: []
  m_FloatCurves: []
  m_PPtrCurves:
  - serializedVersion: 2
    curve:
    - time: 0
      value: {fileID: 21300000, guid: 7a7cd5571452e7a48b97ec725e26b4c6, type: 3}
    - time: 0.083333336
      value: {fileID: 21300000, guid: be87bb48be01a554bb09ad698eaab68d, type: 3}
    - time: 0.18333334
      value: {fileID: 21300000, guid: bb270a0583f6bdb418c3e4a515dbb2b0, type: 3}
    - time: 0.3
      value: {fileID: 21300000, guid: 739588efd0b5b184b8e0b6ea89813baa, type: 3}
    - time: 0.4
      value: {fileID: 21300000, guid: 329b7098a2931c148b7b39060d64ca58, type: 3}
    - time: 0.51666665
      value: {fileID: 21300000, guid: beb04156c9932ac4f9099c3a19950980, type: 3}
    - time: 0.6166667
      value: {fileID: 21300000, guid: f4bbba6e6ef699d419b14fb8c5f5763c, type: 3}
    - time: 0.73333335
      value: {fileID: 21300000, guid: 194ff04d8c66e1446a67cf93d79947d1, type: 3}
    - time: 0.8333333
      value: {fileID: 21300000, guid: e84cf5aaa40601a42972fb54ea2ffe16, type: 3}
    - time: 0.9166667
      value: {fileID: 21300000, guid: be56296b607cb9e428f069c7f9a9cab8, type: 3}
    attribute: m_Sprite
    path: 
    classID: 212
    script: {fileID: 0}
    flags: 2
  m_SampleRate: 60
  m_WrapMode: 0
  m_Bounds:
    m_Center: {x: 0, y: 0, z: 0}
    m_Extent: {x: 0, y: 0, z: 0}
  m_ClipBindingConstant:
    genericBindings:
    - serializedVersion: 2
      path: 0
      attribute: 0
      script: {fileID: 0}
      typeID: 212
      customType: 23
      isPPtrCurve: 1
      isIntCurve: 0
      isSerializeReferenceCurve: 0
    pptrCurveMapping:
    - {fileID: 21300000, guid: 7a7cd5571452e7a48b97ec725e26b4c6, type: 3}
    - {fileID: 21300000, guid: be87bb48be01a554bb09ad698eaab68d, type: 3}
    - {fileID: 21300000, guid: bb270a0583f6bdb418c3e4a515dbb2b0, type: 3}
    - {fileID: 21300000, guid: 739588efd0b5b184b8e0b6ea89813baa, type: 3}
    - {fileID: 21300000, guid: 329b7098a2931c148b7b39060d64ca58, type: 3}
    - {fileID: 21300000, guid: beb04156c9932ac4f9099c3a19950980, type: 3}
    - {fileID: 21300000, guid: f4bbba6e6ef699d419b14fb8c5f5763c, type: 3}
    - {fileID: 21300000, guid: 194ff04d8c66e1446a67cf93d79947d1, type: 3}
    - {fileID: 21300000, guid: e84cf5aaa40601a42972fb54ea2ffe16, type: 3}
    - {fileID: 21300000, guid: be56296b607cb9e428f069c7f9a9cab8, type: 3}
  m_AnimationClipSettings:
    serializedVersion: 2
    m_AdditiveReferencePoseClip: {fileID: 0}
    m_AdditiveReferencePoseTime: 0
    m_StartTime: 0
    m_StopTime: 0.93333334
    m_OrientationOffsetY: 0
    m_Level: 0
    m_CycleOffset: 0
    m_HasAdditiveReferencePose: 0
    m_LoopTime: 1
    m_LoopBlend: 0
    m_LoopBlendOrientation: 0
    m_LoopBlendPositionY: 0
    m_LoopBlendPositionXZ: 0
    m_KeepOriginalOrientation: 0
    m_KeepOriginalPositionY: 1
    m_KeepOriginalPositionXZ: 0
    m_HeightFromFeet: 0
    m_Mirror: 0
  m_EditorCurves: []
  m_EulerEditorCurves: []
  m_HasGenericRootTransform: 0
  m_HasMotionFloatCurves: 0
  m_Events: []
